{"pagination":{"last_visible_page":60,"has_next_page":true,"current_page":1,"items":{"count":25,"total":1478,"per_page":25}},"data":[{"mal_id":1,"name":"Big Comic Original","url":"https:\/\/myanimelist.net\/manga\/magazine\/1\/Big_Comic_Original","count":102},{"mal_id":2,"name":"Young Animal","url":"https:\/\/myanimelist.net\/manga\/magazine\/2\/Young_Animal","count":172},{"mal_id":3,"name":"Big Comic Spirits","url":"https:\/\/myanimelist.net\/manga\/magazine\/3\/Big_Comic_Spirits","count":303},{"mal_id":4,"name":"Afternoon","url":"https:\/\/myanimelist.net\/manga\/magazine\/4\/Afternoon","count":300},{"mal_id":5,"name":"Web Comic Gum","url":"https:\/\/myanimelist.net\/manga\/magazine\/5\/Web_Comic_Gum","count":6},{"mal_id":6,"name":"Young Magazine (Monthly)","url":"https:\/\/myanimelist.net\/manga\/magazine\/6\/Young_Magazine_Monthly","count":91},{"mal_id":8,"name":"Shounen Magazine (Weekly)","url":"https:\/\/myanimelist.net\/manga\/magazine\/8\/Shounen_Magazine_Weekly","count":425},{"mal_id":9,"name":"Ribon Magazine","url":"https:\/\/myanimelist.net\/manga\/magazine\/9\/Ribon_Magazine","count":368},{"mal_id":10,"name":"Young Magazine (Weekly)","url":"https:\/\/myanimelist.net\/manga\/magazine\/10\/Young_Magazine_Weekly","count":299},{"mal_id":11,"name":"LaLa","url":"https:\/\/myanimelist.net\/manga\/magazine\/11\/LaLa","count":270},{"mal_id":13,"name":"Shounen Gangan","url":"https:\/\/myanimelist.net\/manga\/magazine\/13\/Shounen_Gangan","count":190},{"mal_id":14,"name":"Asuka","url":"https:\/\/myanimelist.net\/manga\/magazine\/14\/Asuka","count":247},{"mal_id":15,"name":"Cookie","url":"https:\/\/myanimelist.net\/manga\/magazine\/15\/Cookie","count":82},{"mal_id":16,"name":"Zipper","url":"https:\/\/myanimelist.net\/manga\/magazine\/16\/Zipper","count":3},{"mal_id":17,"name":"Margaret","url":"https:\/\/myanimelist.net\/manga\/magazine\/17\/Margaret","count":391},{"mal_id":18,"name":"Dengeki Comic Gao!","url":"https:\/\/myanimelist.net\/manga\/magazine\/18\/Dengeki_Comic_Gao","count":61},{"mal_id":19,"name":"From Gamers","url":"https:\/\/myanimelist.net\/manga\/magazine\/19\/From_Gamers","count":1},{"mal_id":20,"name":"Nakayoshi","url":"https:\/\/myanimelist.net\/manga\/magazine\/20\/Nakayoshi","count":313},{"mal_id":21,"name":"Hana to Yume","url":"https:\/\/myanimelist.net\/manga\/magazine\/21\/Hana_to_Yume","count":395},{"mal_id":22,"name":"Sho-Comi","url":"https:\/\/myanimelist.net\/manga\/magazine\/22\/Sho-Comi","count":535},{"mal_id":23,"name":"Dengeki Daioh","url":"https:\/\/myanimelist.net\/manga\/magazine\/23\/Dengeki_Daioh","count":328},{"mal_id":24,"name":"Young Gangan","url":"https:\/\/myanimelist.net\/manga\/magazine\/24\/Young_Gangan","count":213},{"mal_id":25,"name":"Ultra Jump","url":"https:\/\/myanimelist.net\/manga\/magazine\/25\/Ultra_Jump","count":197},{"mal_id":26,"name":"Eyes","url":"https:\/\/myanimelist.net\/manga\/magazine\/26\/Eyes","count":9},{"mal_id":27,"name":"Shounen Ace","url":"https:\/\/myanimelist.net\/manga\/magazine\/27\/Shounen_Ace","count":290}]}